<svg width="24" height="24" viewBox="0 0 24 24" fill="none" xmlns="http://www.w3.org/2000/svg">
<path fill-rule="evenodd" clip-rule="evenodd" d="M0.000172981 1.76221C-0.004802 1.02343 0.091144 0.191895 1.12701 0.191895H5.8472C6.50852 0.191895 7.11156 0.75771 7.04972 1.44216C6.90794 3.0073 7.11795 4.53178 7.68048 6.01561C7.98609 6.82091 7.69647 7.40853 7.09094 8.00206L4.51533 10.5274C6.34222 14.3092 9.31796 17.404 12.9543 19.304L15.3825 16.6253C15.9532 15.9956 16.5182 15.6944 17.2925 16.0122C18.7193 16.5972 20.1851 16.8156 21.69 16.6682C22.3481 16.6039 22.8922 17.231 22.8922 17.9188V22.8278C22.8922 23.9051 22.0926 24.0049 21.3823 23.9998C9.58412 23.9103 0.0862185 14.0324 9.39492e-05 1.76212L0.000172981 1.76221Z" fill="#008745"/>
<path d="M18.4618 0H18.4633V0.00222807C19.9914 0.00267369 21.3756 0.647478 22.3774 1.68888L22.3784 1.68777C23.3783 2.72761 23.9972 4.1665 23.9981 5.75668H24.0002V5.76002V5.76158H23.9981C23.9976 7.35153 23.3772 8.79153 22.3752 9.83337C21.3752 10.8732 19.9923 11.5169 18.465 11.5178V11.52H18.4618H18.4603V11.5178C16.9315 11.5174 15.5469 10.8721 14.5451 9.83003C13.5453 8.78997 12.9263 7.35175 12.9255 5.76335H12.9233V5.76001V5.75845H12.9255C12.9259 4.16916 13.5459 2.72961 14.5473 1.68777L14.5462 1.68666C15.546 0.646815 16.9296 0.00312745 18.4586 0.00223478V6.70744e-06H18.4618L18.4618 0ZM20.5757 7.76284C20.7903 7.97295 20.8006 8.32498 20.5986 8.54823C20.3965 8.77149 20.0581 8.78218 19.8434 8.57208L18.0136 6.78962C17.902 6.68022 17.8461 6.53294 17.8461 6.385H17.8441V2.76772C17.8441 2.46025 18.0841 2.2107 18.3797 2.2107C18.6754 2.2107 18.9153 2.46025 18.9153 2.76772V6.14549L20.5756 7.76285L20.5757 7.76284ZM18.4633 1.11181V1.11404H18.4618H18.4586V1.11181C17.2284 1.11248 16.1125 1.6334 15.3037 2.4745H15.3016C14.4933 3.31493 13.9926 4.47642 13.9924 5.75845H13.9945V5.76001V5.76335H13.9924C13.993 7.04382 14.4937 8.20509 15.3026 9.04665C16.1107 9.8873 17.2276 10.408 18.4603 10.4082V10.406H18.4618H18.465V10.4082C19.6962 10.4076 20.8128 9.88685 21.622 9.04554C22.4303 8.20511 22.931 7.04361 22.9312 5.76159H22.929V5.76003V5.75668H22.9312C22.9305 4.47732 22.4297 3.31672 21.6209 2.47562V2.47339C20.8128 1.63274 19.696 1.11204 18.4633 1.11181L18.4633 1.11181Z" fill="#008745"/>
</svg>
