<?xml version="1.0" encoding="UTF-8"?>
<!DOCTYPE svg PUBLIC "-//W3C//DTD SVG 1.1//EN" "http://www.w3.org/Graphics/SVG/1.1/DTD/svg11.dtd">
<!-- Creator: CorelDRAW X8 -->
<svg xmlns="http://www.w3.org/2000/svg" xml:space="preserve" width="209.999mm" height="111.702mm" version="1.1" style="shape-rendering:geometricPrecision; text-rendering:geometricPrecision; image-rendering:optimizeQuality; fill-rule:evenodd; clip-rule:evenodd"
viewBox="0 0 21000 11170"
 xmlns:xlink="http://www.w3.org/1999/xlink">
 <defs>
  <style type="text/css">
   <![CDATA[
    .fil0 {fill:black}
   ]]>
  </style>
 </defs>
 <g id="Слой_x0020_1">
  <metadata id="CorelCorpID_0Corel-Layer"/>
  <path class="fil0" d="M20553 6925l-100 0 0 -2144c0,-166 -92,-318 -238,-395l-1829 -967c0,0 0,0 0,0l-22 -12 -2116 -2954c-203,-284 -532,-453 -881,-453l-13736 0c-598,0 -1084,486 -1084,1084l0 5841 -100 0c-247,0 -447,201 -447,447l0 1787c0,247 200,447 447,447l1676 0c246,900 1070,1564 2047,1564 977,0 1802,-664 2047,-1564l8551 0c245,900 1070,1564 2047,1564 977,0 1801,-664 2047,-1564l1691 0c247,0 447,-200 447,-446l0 -1788c0,-246 -200,-447 -447,-447zm-5186 -6031c61,0 119,29 154,79l1715 2394 -1207 0 -1471 -2473 809 0zm-4096 0l1859 0 389 0 1470 2473 -1859 0 -1859 0 -894 0 -3128 0 -893 0 -372 0 -2287 0 0 -2473 2287 0 372 0 893 0 3128 0 894 0 0 0zm-9196 7819l-1181 0 0 -894 1547 0c-185,261 -314,565 -366,894zm2095 1564c-677,0 -1229,-552 -1229,-1229 0,-678 552,-1229 1229,-1229 678,0 1229,551 1229,1229 0,677 -551,1229 -1229,1229zm10549 -1564l-8453 0c-53,-329 -181,-633 -367,-894l9187 0c-186,261 -314,565 -367,894zm2096 1564c-678,0 -1229,-552 -1229,-1229 0,-678 551,-1229 1229,-1229 677,0 1229,551 1229,1229 0,677 -552,1229 -1229,1229zm-15374 -3352l0 -5842c0,-104 85,-189 190,-189l1173 0 0 2920c0,247 200,447 447,447l14815 0 1493 789 0 1876 -18118 0 0 -1zm18665 1788l-1196 0c-52,-329 -181,-633 -366,-894l1562 0 0 894 0 0z"/>
  <g id="_446753168">
  </g>
  <g id="_446753648">
  </g>
  <g id="_446753024">
  </g>
  <g id="_446754368">
  </g>
  <g id="_446754224">
  </g>
  <g id="_446754416">
  </g>
  <g id="_446754032">
  </g>
  <g id="_446754152">
  </g>
  <g id="_446754488">
  </g>
  <g id="_446754560">
  </g>
  <g id="_446754800">
  </g>
  <g id="_446754536">
  </g>
  <g id="_446754896">
  </g>
  <g id="_446755328">
  </g>
  <g id="_446755448">
  </g>
 </g>
</svg>
