<svg width="12" height="12" viewBox="0 0 12 12" fill="none" xmlns="http://www.w3.org/2000/svg">
<path fill-rule="evenodd" clip-rule="evenodd" d="M-3.13942e-05 0.791487C-0.00263926 0.419121 0.0476553 0 0.59065 0H3.06496C3.41162 0 3.72773 0.285189 3.69532 0.630172C3.62099 1.41905 3.73108 2.18744 4.02596 2.93534C4.18615 3.34123 4.03434 3.63741 3.71692 3.93657L2.3668 5.20939C3.32444 7.11556 4.88432 8.67543 6.79048 9.63308L8.06331 8.28296C8.36247 7.96554 8.65865 7.81373 9.06454 7.97392C9.81244 8.2688 10.5808 8.37889 11.3697 8.30456C11.7147 8.27215 11.9999 8.58826 11.9999 8.93492V11.4092C11.9999 11.9522 11.5808 12.0025 11.2084 11.9999C5.02383 11.9548 0.0450733 6.97604 -7.28225e-05 0.791445L-3.13942e-05 0.791487Z" fill="#006735"/>
</svg>
